[
    {
        "name": "Additional Kernels",
        "icon": "kernel",
        "description": "Web browsing and communication",
        "apps": [
            {
                "name": "Linux Hardened",
                "icon": "kernel",
                "description": "The Linux Hardened Kernel.",
                "pkg": "linux-hardened",
                "extra": ["linux-hardened-headers"]
            },
            {
                "name": "Linux LTS",
                "icon": "kernel",
                "description": "Dynamic",
                "pkg": "linux-lts",
                "extra": ["linux-lts-headers"]
            },
            {
                "name": "Linux Zen",
                "icon": "kernel",
                "description": "Dynamic",
                "pkg": "linux-zen",
                "extra": ["linux-zen-headers"]
            }
        ]
    },
    {
        "name": "Android Tools",
        "icon": "android",
        "description": "Various tools for Android",
        "apps": [
            {
                "name": "Android Tools",
                "icon": "android",
                "description": "Dynamic.",
                "pkg": "android-tools",
                "extra": []
            },
            {
                "name": "Android File Transfer",
                "icon": "android-file-transfer",
                "description": "Dynamic",
                "pkg": "android-file-transfer",
                "extra": []
            },
            {
                "name": "Airdroid",
                "icon": "android-package-archive",
                "description": "Dynamic",
                "pkg": "airdroid-nativefier",
                "extra": []
            },
            {
                "name": "android-sdk-platform-tools",
                "icon": "androidstudio",
                "description": "Dynamic",
                "pkg": "android-sdk-platform-tools",
                "extra": []
            },
            {
                "name": "QT-SCRCPY",
                "icon": "camera-web",
                "description": "Dynamic",
                "pkg": "qtscrcpy",
                "extra": ["scrcpy"]
            }
        ]
    },
    {
        "name": "Audio Tools",
        "icon": "audio-headset",
        "description": "Various Audio Tools",
        "apps": [
            {
                "name": "Amarok",
                "icon": "amarok",
                "description": "Dynamic",
                "pkg": "amarok",
                "extra": []
            },
            {
                "name": "deezer",
                "icon": "deezer",
                "description": "Dynamic",
                "pkg": "deezer",
                "extra": []
            },
            {
                "name": "glava",
                "icon": "qtspectrumanalyzer",
                "description": "Dynamic",
                "pkg": "glava",
                "extra": []
            },
            {
                "name": "KWave",
                "icon": "kwave",
                "description": "Dynamic",
                "pkg": "kwave",
                "extra": []
            },
            {
                "name": "Olivia",
                "icon": "lxmusic",
                "description": "Dynamic",
                "pkg": "olivia",
                "extra": []
            },
            {
                "name": "Radiotray",
                "icon": "radiotray_on",
                "description": "Dynamic",
                "pkg": "radiotray",
                "extra": []
            },
            {
                "name": "Sayonara Player",
                "icon": "audio-player",
                "description": "Dynamic",
                "pkg": "sayonara-player",
                "extra": []
            },
            {
                "name": "James DSP",
                "icon": "lxmusic",
                "description": "Dynamic",
                "pkg": "jamesdsp",
                "extra": []
            },
            {
                "name": "Noisetorch",
                "icon": "noise",
                "description": "Dynamic",
                "pkg": "noisetorch",
                "extra": []
            }
        ]
    },
    {
        "name": "Benchmarking",
        "icon": "sysprof-calgraph",
        "description": "Benchmarking Tools",
        "apps": [
            {
                "name": "Blender Benchmark",
                "icon": "blender",
                "description": "Dynamic",
                "pkg": "blender-benchmark",
                "extra": []
            },
            {
                "name": "Geekbench",
                "icon": "libreoffice-main",
                "description": "Dynamic",
                "pkg": "geekbench",
                "extra": []
            },
            {
                "name": "GPU Test",
                "icon": "indicator-sensors-gpu",
                "description": "Dynamic",
                "pkg": "gputest",
                "extra": []
            },
            {
                "name": "Phoronix Test Suite",
                "icon": "blackmagicraw-speedtest",
                "description": "Dynamic",
                "pkg": "phoronix-test-suite",
                "extra": []
            }
        ]
    },
    {
        "name": "BTRFS Tools",
        "icon": "timeshift",
        "description": "BTRFS Snapshotting Tools",
        "apps": [
            {
                "name": "BTRFS Snapper",
                "icon": "deja-dup",
                "description": "Dynamic",
                "pkg": "btrfs-assistant",
                "extra": ["btrfs-du","snapper-gui-git","snapper-support"]
            },
            {
                "name": "BTRFS Timeshift",
                "icon": "timeshift",
                "description": "Dynamic",
                "pkg": "timeshift-support",
                "extra": []
            }
        ]
    },
    {
        "name": "Development Tools",
        "icon": "text-editor",
        "description": "Various editors for text or code",
        "apps": [
            {
                "name": "Gammaray",
                "icon": "codeblocks",
                "description": "Dynamic",
                "pkg": "gammaray",
                "extra": []
            },
            {
                "name": "Gitfiend",
                "icon": "retext",
                "description": "Dynamic",
                "pkg": "gitfiend",
                "extra": []
            },
            {
                "name": "Guvcview",
                "icon": "guvcview",
                "description": "Dynamic",
                "pkg": "guvcview-qt",
                "extra": []
            },
            {
                "name": "Hugo",
                "icon": "webbrowser",
                "description": "Dynamic",
                "pkg": "hugo",
                "extra": []
            },
            {
                "name": "Sublime Text",
                "icon": "sublime",
                "description": "Dynamic",
                "pkg": "sublime-text-4",
                "extra": []
            },
            {
                "name": "Vim Incl Addons",
                "icon": "vim",
                "description": "Dynamic",
                "pkg": "vim",
                "extra": ["neovim-qt","vim-runtime"]
            }
        ]
    },
    {
        "name": "Disk & USB Tools",
        "icon": "multibootusb",
        "description": "USB & CD/DVD Tools",
        "apps": [
            {
                "name": "Brasero",
                "icon": "brasero",
                "description": "Dynamic",
                "pkg": "brasero",
                "extra": []
            },
            {
                "name": "Baobab",
                "icon": "baobab",
                "description": "Dynamic",
                "pkg": "baobab",
                "extra": []
            },
            {
                "name": "GParted",
                "icon": "gparted",
                "description": "Dynamic",
                "pkg": "gparted",
                "extra": []
            },
            {
                "name": "Balena Etcher",
                "icon": "etcher",
                "description": "Dynamic",
                "pkg": "etcher-bin",
                "extra": []
            },
            {
                "name": "Ventoy",
                "icon": "liveusb-creator",
                "description": "Dynamic",
                "pkg": "ventoy-bin",
                "extra": []
            },
            {
                "name": "WoeUSB",
                "icon": "woeusbgui-icon",
                "description": "Dynamic",
                "pkg": "woeusb-ng",
                "extra": []
            }
        ]
    },
    {
        "name": "Gaming Tools",
        "icon": "applications-games",
        "description": "Various Game Launchers",
        "apps": [
            {
                "name": "Gamemode",
                "icon": "offgame",
                "description": "Dynamic",
                "pkg": "gamemode",
                "extra": []
            },
            {
                "name": "Goverlay",
                "icon": "goverlay",
                "description": "Dynamic",
                "pkg": "goverlay-bin",
                "extra": []
            },

            {
                "name": "Mangohud",
                "icon": "games",
                "description": "Dynamic",
                "pkg": "mangohud",
                "extra": []
            },
            {
                "name": "T-Launcher",
                "icon": "tlauncher",
                "description": "Dynamic",
                "pkg": "tlauncher",
                "extra": []
            },
            {
                "name": "Steam Native",
                "icon": "steam",
                "description": "Dynamic",
                "pkg": "steam-native-runtime",
                "extra": []
            }
        ]
    },
    {
        "name": "Graphics Creating",
        "icon": "applications-graphics",
        "description": "Creating and editing graphics",
        "apps": [
            {
                "name": "Flameshot",
                "icon": "flameshot",
                "description": "Dynamic",
                "pkg": "flameshot",
                "extra": []
            },
            {
                "name": "Inkscape",
                "icon": "inkscape",
                "description": "Dynamic",
                "pkg": "inkscape",
                "extra": []
            },
            {
                "name": "Krita",
                "icon": "krita",
                "description": "Dynamic",
                "pkg": "krita",
                "extra": []
            }
        ]
    },
    {
        "name": "Internet Tools",
        "icon": "applications-internet",
        "description": "Browsers, email & Social",
        "apps": [
            {
                "name": "Firefox",
                "icon": "firefox",
                "description": "Dynamic",
                "pkg": "firefox",
                "extra": ["firefox-ublock-origin"]
            },
            {
                "name": "Netsurf",
                "icon": "web",
                "description": "Dynamic",
                "pkg": "netsurf",
                "extra": []
            },
            {
                "name": "Opera",
                "icon": "opera",
                "description": "Dynamic",
                "pkg": "opera",
                "extra": ["opera-ffmpeg-codecs"]
            },
            {
                "name": "Vivaldi",
                "icon": "vivaldi",
                "description": "Dynamic",
                "pkg": "vivaldi",
                "extra": ["vivaldi-ffmpeg-codecs"]
            },
            {
                "name": "Waterfox",
                "icon": "waterfox",
                "description": "Dynamic",
                "pkg": "waterfox-g4-bin",
                "extra": []
            },
            {
                "name": "Tangram",
                "icon": "tangram",
                "description": "Dynamic",
                "pkg": "tangram",
                "extra": []
            },
            {
                "name": "Webapp Manager",
                "icon": "webapp-manager",
                "description": "Dynamic",
                "pkg": "webapp-manager",
                "extra": []
            },
            {
                "name": "Deluge",
                "icon": "deluge",
                "description": "Dynamic",
                "pkg": "deluge",
                "extra": []
            },
            {
                "name": "Fragments",
                "icon": "fragments",
                "description": "Dynamic",
                "pkg": "fragments",
                "extra": []
            },
            {
                "name": "Free Download Manager",
                "icon": "download",
                "description": "Dynamic",
                "pkg": "freedownloadmanager",
                "extra": []
            },
            {
                "name": "Ktorrent",
                "icon": "ktorrent",
                "description": "Dynamic",
                "pkg": "ktorrent",
                "extra": []
            },
            {
                "name": "Nitroshare",
                "icon": "nitroshare",
                "description": "Dynamic",
                "pkg": "nitroshare",
                "extra": []
            },
            {
                "name": "Persepolis",
                "icon": "persepolis",
                "description": "Dynamic",
                "pkg": "persepolis",
                "extra": []
            },
            {
                "name": "rclone",
                "icon": "googledrive",
                "description": "Dynamic",
                "pkg": "rclone",
                "extra": []
            },
            {
                "name": "Xtreme Download",
                "icon": "download",
                "description": "Dynamic",
                "pkg": "xtreme-download",
                "extra": []
            },
            {
                "name": "KMail",
                "icon": "kmail",
                "description": "Dynamic",
                "pkg": "kmail",
                "extra": []
            }
        ]
    },
    {
        "name": "Libre Office",
        "icon": "libreoffice-main",
        "description": "Best Office Suite There Is",
        "apps": [
            {
                "name": "Libre Office Fresh",
                "icon": "libreoffice-main",
                "description": "Dynamic",
                "pkg": "libreoffice-fresh",
                "extra": ["hunspell-en_us"]
            },
            {
                "name": "Libre Office Still",
                "icon": "libreoffice-main",
                "description": "Dynamic",
                "pkg": "libreoffice-still",
                "extra": ["hunspell-en_us"]
            }
        ]
    },
    {
        "name": "Package Managers",
        "icon": "pamac",
        "description": "Alternative Package Managers",
        "apps": [
            {
                "name": "Aura",
                "icon": "aura",
                "description": "Dynamic",
                "pkg": "aura-bin",
                "extra": []
            },
            {
                "name": "Bauh",
                "icon": "bauh",
                "description": "Dynamic",
                "pkg": "bauh",
                "extra": []
            },
            {
                "name": "Discover",
                "icon": "discover",
                "description": "Dynamic",
                "pkg": "discover",
                "extra": []
            },
            {
                "name": "Fetchpkg",
                "icon": "fetch",
                "description": "Dynamic",
                "pkg": "fetchpkg",
                "extra": []
            },
            {
                "name": "Kalu KDE",
                "icon": "plasma",
                "description": "Dynamic",
                "pkg": "kalu-kde",
                "extra": []
            },
            {
                "name": "Octopi",
                "icon": "octopi",
                "description": "Dynamic",
                "pkg": "octopi",
                "extra": ["alpm_octopi_utils"]
            },
            {
                "name": "PacSeek",
                "icon": "terminal",
                "description": "Dynamic",
                "pkg": "pacseek-bin",
                "extra": []
            },
            {
                "name": "Paru",
                "icon": "konsole",
                "description": "Dynamic",
                "pkg": "paru-bin",
                "extra": []
            }
        ]
    },
    {
        "name": "Password Managers",
        "icon": "notepad",
        "description": "Manage Your Passwords",
        "apps": [
            {
                "name": "Enpass",
                "icon": "enpass",
                "description": "Dynamic",
                "pkg": "enpass",
                "extra": []
            },
            {
                "name": "Lastpass",
                "icon": "lastpass",
                "description": "Dynamic",
                "pkg": "lastpass",
                "extra": []
            }
        ]
    },
    {
        "name": "Power Management",
        "icon": "cpu",
        "description": "Control Laptop Power Usage",
        "apps": [
            {
                "name": "Auto CPU Freq",
                "icon": "power",
                "description": "Dynamic",
                "pkg": "auto-cpufreq",
                "extra": []
            },
            {
                "name": "CPU Power",
                "icon": "cpu",
                "description": "Dynamic",
                "pkg": "cpupower",
                "extra": []
            },
            {
                "name": "System76 Power",
                "icon": "power",
                "description": "Dynamic",
                "pkg": "system76-power",
                "extra": []
            },
            {
                "name": "TLP",
                "icon": "tlp",
                "description": "Dynamic",
                "pkg": "tlp",
                "extra": []
            }
        ]
    },
    {
        "name": "Remote Desktop",
        "icon": "vnc",
        "description": "Remote Desktop Tools",
        "apps": [
            {
                "name": "Barrier",
                "icon": "barrier",
                "description": "Dynamic",
                "pkg": "barrier",
                "extra": []
            },
            {
                "name": "No Machine",
                "icon": "nomachine",
                "description": "Dynamic",
                "pkg": "nomachine",
                "extra": []
            },
            {
                "name": "RealVNC Server",
                "icon": "vnc",
                "description": "Dynamic",
                "pkg": "realvnc-vnc-server",
                "extra": ["realvnc-vnc-viewer"]
            },
            {
                "name": "TeamViewer",
                "icon": "teamviewer",
                "description": "Dynamic",
                "pkg": "teamviewer",
                "extra": []
            }
        ]
    },
    {
        "name": "Ricing",
        "icon": "art",
        "description": "Tools That Will Help With Ricing",
        "apps": [
            {
                "name": "KonSave",
                "icon": "gears",
                "description": "Dynamic",
                "pkg": "konsave",
                "extra": []
            },
            {
                "name": "Variety",
                "icon": "wallpapers",
                "description": "Dynamic",
                "pkg": "variety",
                "extra": []
            },
            {
                "name": "Wallpaper Engine Plugin",
                "icon": "desktop",
                "description": "Dynamic",
                "pkg": "wallpaper-engine-plasma",
                "extra": []
            },
            {
                "name": "XScreensaver",
                "icon": "screen",
                "description": "Dynamic",
                "pkg": "xscreensaver",
                "extra": []
            }
        ]
    },
    {
        "name": "Terminal Emulators",
        "icon": "konsole",
        "description": "Extra Terminal Emulators",
        "apps": [
            {
                "name": "alacritty",
                "icon": "alacritty",
                "description": "Dynamic",
                "pkg": "alacritty",
                "extra": ["alacritty-themes"]
            },
            {
                "name": "Cool Retro Term",
                "icon": "terminal",
                "description": "Dynamic.",
                "pkg": "cool-retro-term",
                "extra": []
            },
            {
                "name": "GNOME Terminal",
                "icon": "terminal",
                "description": "GNOME Terminal With Transparency.",
                "pkg": "gnome-terminal-transparency",
                "extra": []
            }
        ]
    },
    {
        "name": "Terminal Utilities",
        "icon": "tui",
        "description": "Tools that run in Terminal",
        "apps": [
            {
                "name": "Btop",
                "icon": "btop",
                "description": "Dynamic",
                "pkg": "btop",
                "extra": []
            },
            {
                "name": "Gotop",
                "icon": "gotop",
                "description": "Dynamic",
                "pkg": "gotop",
                "extra": []
            },
            {
                "name": "nVtops",
                "icon": "nvtop",
                "description": "Dynamic",
                "pkg": "nvtop",
                "extra": []
            },
            {
                "name": "CPU Fetch",
                "icon": "cpufetch",
                "description": "Dynamic",
                "pkg": "cpufetch",
                "extra": []
            },
            {
                "name": "CPI-ID",
                "icon": "cpuid",
                "description": "Dynamic",
                "pkg": "cpuid",
                "extra": []
            },
            {
                "name": "Bash Pipes",
                "icon": "pipes",
                "description": "Dynamic",
                "pkg": "bash-pipes",
                "extra": []
            },
            {
                "name": "Cava",
                "icon": "music",
                "description": "Dynamic",
                "pkg": "cava",
                "extra": []
            },
            {
                "name": "Neo Matrix",
                "icon": "matrix",
                "description": "Dynamic",
                "pkg": "neo-matrix",
                "extra": ["cmatrix"]
            },
            {
                "name": "FM-6000",
                "icon": "terminal",
                "description": "Dynamic",
                "pkg": "fm6000",
                "extra": []
            },
            {
                "name": "TTY Clock",
                "icon": "clock",
                "description": "Dynamic",
                "pkg": "tty-clock-git",
                "extra": []
            },
            {
                "name": "WTTR (Terminal Weather)",
                "icon": "weather",
                "description": "Dynamic",
                "pkg": "wttr",
                "extra": []
            }
        ]
    },
    {
        "name": "Video Tools",
        "icon": "video",
        "description": "Various Video Tools",
        "apps": [
            {
                "name": "Baka Media Player",
                "icon": "mplayer",
                "description": "Dynamic",
                "pkg": "baka-mplayer",
                "extra": []
            },
            {
                "name": "Kden Live",
                "icon": "kdenlive",
                "description": "Dynamic",
                "pkg": "kdenlive",
                "extra": []
            },
            {
                "name": "Simple Screen Recorder",
                "icon": "simplescreenrecorder",
                "description": "Dynamic",
                "pkg": "simplescreenrecorder",
                "extra": []
            },
            {
                "name": "Plex Media Server",
                "icon": "plex",
                "description": "Dynamic",
                "pkg": "plex-media-server",
                "extra": ["plex-media-player"]
            },
            {
                "name": "Hypnotix",
                "icon": "video",
                "description": "Dynamic",
                "pkg": "hypnotix",
                "extra": []
            },
            {
                "name": "Mystiq",
                "icon": "mystiq",
                "description": "Dynamic",
                "pkg": "mystiq",
                "extra": []
            },
            {
                "name": "Youtube Download (backend)",
                "icon": "youtube",
                "description": "Dynamic",
                "pkg": "yt-dlp",
                "extra": []
            }
        ]
    },
    {
        "name": "System Utilities",
        "icon": "applications-system",
        "description": "Various System Utilities",
        "apps": [
            {
                "name": "App Image Launcher",
                "icon": "appimagelauncher",
                "description": "Dynamic",
                "pkg": "appimagelauncher",
                "extra": []
            },
            {
                "name": "Caffeine",
                "icon": "caffeine",
                "description": "Dynamic",
                "pkg": "caffeine-ng",
                "extra": []
            },
            {
                "name": "Core Control",
                "icon": "amd",
                "description": "Dynamic",
                "pkg": "corectrl",
                "extra": []
            },
            {
                "name": "CPU-X",
                "icon": "CPU",
                "description": "Dynamic",
                "pkg": "cpu-x",
                "extra": []
            },
            {
                "name": "Fan Control GUI",
                "icon": "fans",
                "description": "Dynamic",
                "pkg": "fancontrol-gui",
                "extra": []
            },
            {
                "name": "Mouse Tweaks",
                "icon": "mouse",
                "description": "Dynamic",
                "pkg": "mousetweaks",
                "extra": []
            },
            {
                "name": "PuTTY",
                "icon": "putty",
                "description": "Dynamic",
                "pkg": "putty",
                "extra": []
            },
            {
                "name": "Radeon Control",
                "icon": "gpu",
                "description": "Dynamic",
                "pkg": "radeontool",
                "extra": []
            },
            {
                "name": "Solaar (Logitech)",
                "icon": "mouse",
                "description": "Dynamic",
                "pkg": "solaar",
                "extra": []
            },
            {
                "name": "System Monitoring Center",
                "icon": "sysprofs",
                "description": "Dynamic",
                "pkg": "system-monitoring-center",
                "extra": []
            },
            {
                "name": "VirtualBox",
                "icon": "virtualbox",
                "description": "Dynamic",
                "pkg": "virtualbox-meta",
                "extra": []
            },
            {
                "name": "WiNE",
                "icon": "wine",
                "description": "Dynamic",
                "pkg": "wine-meta",
                "extra": []
            },
            {
                "name": "TimeShift",
                "icon": "timeshift",
                "description": "Dynamic",
                "pkg": "timeshift",
                "extra": []
            }
        ]
    }
]
