[
    {
        "name": "Android Tools",
        "icon": "applications-development",
        "description": "Android Development",
        "apps": [
            {
                "name": "Android Studio",
                "icon": "android-studio",
                "description": "Integrated development environment",
                "pkg": "com.google.AndroidStudio",
                "extra": []
            },
            {
                "name": "guiscrcpy",
                "icon": "guiscrcpy",
                "description": "Android Screen Mirroring Software",
                "pkg": "in.srev.guiscrcpy",
                "extra": []
            }
        ]
    },
    {
        "name": "Audio",
        "icon": "applications-audio",
        "description": "Audio Players, Recorders",
        "apps": [
            {
                "name": "Amberol",
                "icon": "audio-player",
                "description": "Plays music, and nothing else",
                "pkg": "io.bassi.Amberol",
                "extra": []
            },
            {
                "name": "Audacious",
                "icon": "audacious",
                "description": "Lightweight audio player",
                "pkg": "org.atheme.audacious",
                "extra": []
            },
            {
                "name": "Cider",
                "icon": "cider",
                "description": "An open source and community oriented Apple Music client",
                "pkg": "sh.cider.Cider",
                "extra": []
            },
            {
                "name": "Elisa",
                "icon": "audio-player",
                "description": "Beautiful no-nonsense music player with online radio support",
                "pkg": "org.kde.elisa",
                "extra": []
            },
            {
                "name": "gmusicbrowser",
                "icon": "music",
                "description": "Jukebox for large collection of music",
                "pkg": "org.gmusicbrowser.gmusicbrowser",
                "extra": []
            },
            {
                "name": "Spotify",
                "icon": "spotify-client",
                "description": "Online music streaming service",
                "pkg": "com.spotify.Client",
                "extra": []
            },
            {
                "name": "Tauon Music Box",
                "icon": "audio-player",
                "description": "Play your music with style",
                "pkg": "com.github.taiko2k.tauonmb",
                "extra": []
            },
            {
                "name": "Ardour",
                "icon": "ardour",
                "description": "Digital Audio Workstation",
                "pkg": "org.ardour.Ardour",
                "extra": []
            },
            {
                "name": "Audacity",
                "icon": "audacity",
                "description": "Record and edit audio files",
                "pkg": "org.audacityteam.Audacity",
                "extra": []
            },
            {
                "name": "LMMS",
                "icon": "recorder",
                "description": "A music production application",
                "pkg": "io.lmms.LMMS",
                "extra": []
            },
            {
                "name": "Ciano",
                "icon": "audio-player",
                "description": "A multimedia file converter",
                "pkg": "com.github.robertsanseries.ciano",
                "extra": []
            },
            {
                "name": "SoundConverter",
                "icon": "converter",
                "description": "Convert audio files",
                "pkg": "org.soundconverter.SoundConverter",
                "extra": []
            },
            {
                "name": "EasyTAG",
                "icon": "easytag",
                "description": "Edit audio file metadata",
                "pkg": "org.gnome.EasyTAG",
                "extra": []
            },
            {
                "name": "MusicBrainz Picard",
                "icon": "musicbrainz",
                "description": "MusicBrainz's music tagger",
                "pkg": "org.musicbrainz.Picard",
                "extra": []
            },
            {
                "name": "Rhythmbox",
                "icon": "audio-player",
                "description": "Play and organize your music collection",
                "pkg": "org.gnome.Rhythmbox3",
                "extra": []
            },
            {
                "name": "Soundux",
                "icon": "sound",
                "description": "A cross-platform soundboard",
                "pkg": "io.github.Soundux",
                "extra": []
            }
        ]
    },
    {
        "name": "Dev Studio Tools",
        "icon": "applications-development",
        "description": "Development Studios",
        "apps": [
            {
                "name": "KDevelop",
                "icon": "kdevelop",
                "description": "Featureful, plugin-extensible IDE",
                "pkg": "org.kde.kdevelop",
                "extra": []
            },
            {
                "name": "Notepadqq",
                "icon": "notepad",
                "description": "An advanced text editor",
                "pkg": "com.notepadqq.Notepadqq",
                "extra": []
            },
            {
                "name": "GitAhead",
                "icon": "git",
                "description": "Understand your Git history!",
                "pkg": "io.github.gitahead.GitAhead",
                "extra": []
            },
            {
                "name": "Github Desktop",
                "icon": "github-desktop",
                "description": "Simple collaboration from your desktop",
                "pkg": "io.github.shiftey.Desktop",
                "extra": []
            },
            {
                "name": "gitg",
                "icon": "git",
                "description": "Graphical user interface for git",
                "pkg": "org.gnome.gitg",
                "extra": []
            },
            {
                "name": "GitKraken",
                "icon": "GitKraken",
                "description": "For repo management, in-app code editing & issue tracking.",
                "pkg": "com.axosoft.GitKraken",
                "extra": []
            },
            {
                "name": "Visual Studio Code OSS",
                "icon": "visual-studio-code",
                "description": "Microsoft Code Editor",
                "pkg": "com.visualstudio.code-oss",
                "extra": []
            },
            {
                "name": "Visual Studio Code",
                "icon": "visual-studio-code",
                "description": "Visual Studio Code. Code editing. Redefined.",
                "pkg": "com.visualstudio.code",
                "extra": []
            },
            {
                "name": "VSCodium",
                "icon": "code",
                "description": "VSCodium. Code editing. Redefined.",
                "pkg": "com.vscodium.codium",
                "extra": []
            },
            {
                "name": "Godot",
                "icon": "godot",
                "description": "Godot game engine editor",
                "pkg": "org.godotengine.Godot",
                "extra": []
            },
            {
                "name": "Obsidian",
                "icon": "obsidian",
                "description": "Markdown-based knowledge base",
                "pkg": "md.obsidian.Obsidian",
                "extra": []
            }
        ]
    },
    {
        "name": "Disk & USB Tools",
        "icon": "disk-utility",
        "description": "System utilities",
        "apps": [
            {
                "name": "Raspberry Pi Imager",
                "icon": "rpi-imager",
                "description": "Raspberry Pi imaging utility",
                "pkg": "org.raspberrypi.rpi-imager",
                "extra": []
            },
            {
                "name": "Disk Usage Analyzer",
                "icon": "baobab",
                "description": "Check folder sizes and available disk space",
                "pkg": "org.gnome.baobab",
                "extra": []
            },
            {
                "name": "PowerISO",
                "icon": "poweriso",
                "description": "A all-in-one CD/DVD/Blu-Ray tool",
                "pkg": "com.poweriso.PowerISO",
                "extra": []
            },
            {
                "name": "Popsicle",
                "icon": "mintstick",
                "description": "Linux utility for flashing multiple USB devices in parallel",
                "pkg": "com.system76.Popsicle",
                "extra": []
            },
            {
                "name": "Synology Drive",
                "icon": "disk-utility",
                "description": "Powerful private cloud storage with no recurring fees",
                "pkg": "com.synology.SynologyDrive",
                "extra": []
            }
        ]
    },
    {
        "name": "Gaming Tools",
        "icon": "applications-games",
        "description": "Gaming Tools",
        "apps": [
            {
                "name": "Bottles",
                "icon": "bottles",
                "description": "Run Windows software",
                "pkg": "com.usebottles.bottles",
                "extra": []
            },
            {
                "name": "Lutris",
                "icon": "lutris",
                "description": "Video game preservation platform",
                "pkg": "net.lutris.Lutris",
                "extra": []
            },
            {
                "name": "Heroic Games Launcher",
                "icon": "heroic",
                "description": "An Open Source GOG and Epic Games Launcher.",
                "pkg": "com.heroicgameslauncher.hgl",
                "extra": []
            },
            {
                "name": "Moonlight",
                "icon": "moonlight",
                "description": "Play games remotely from your NVIDIA GameStream-enabled PC",
                "pkg": "com.moonlight_stream.Moonlight",
                "extra": []
            },
            {
                "name": "ProtonUp-Qt",
                "icon": "pupgui2",
                "description": "Install Wine- and Proton-based compatibility tools",
                "pkg": "net.davidotek.pupgui2",
                "extra": []
            },
            {
                "name": "GeForce NOW Electron",
                "icon": "geforcenow",
                "description": "Unofficial GeForce NOW application written in Electron",
                "pkg": "io.github.hmlendea.geforcenow-electron",
                "extra": []
            }
        ]
    },
    {
        "name": "Gaming (Minecraft)",
        "icon": "applications-games",
        "description": "Launchers",
        "apps": [
            {
                "name": "Minecraft (Official)",
                "icon": "minecraft",
                "description": "Create your own world in one of the most popular video games",
                "pkg": "com.mojang.Minecraft",
                "extra": []
            },
            {
                "name": "Minecraft Bedrock Launcher",
                "icon": "minecraft",
                "description": "Download and play Minecraft Bedrock Edition on GNU/Linux",
                "pkg": "io.mrarm.mcpelauncher",
                "extra": []
            },
            {
                "name": "jdMinecraftLauncher",
                "icon": "minecraft",
                "description": "A classic styled Minecraft Launcher",
                "pkg": "com.gitlab.JakobDev.jdMinecraftLauncher",
                "extra": []
            },
            {
                "name": "ATLauncher",
                "icon": "minecraft",
                "description": "A launcher which integrates multiple different modpacks.",
                "pkg": "com.atlauncher.ATLauncher",
                "extra": []
            },
            {
                "name": "PolyMC",
                "icon": "minecraft",
                "description": "A launcher that allows you to easily manage multiple installations.",
                "pkg": "org.polymc.PolyMC",
                "extra": []
            },
            {
                "name": "RPMLauncher",
                "icon": "minecraft",
                "description": "A better Minecraft Launcher that supports multiple platforms.",
                "pkg": "ga.rpmtw.rpmlauncher",
                "extra": []
            }
        ]
    },
    {
        "name": "Gaming (Retro)",
        "icon": "applications-games",
        "description": "Retro games/emulators",
        "apps": [
            {
                "name": "RetroArch",
                "icon": "retroarch",
                "description": "Frontend for emulators, game engines and media players.",
                "pkg": "org.libretro.RetroArch",
                "extra": []
            },
            {
                "name": "ScummVM",
                "icon": "scummvm",
                "description": "Interpreter for numerous adventure games and role-playing games.",
                "pkg": "org.scummvm.ScummVM",
                "extra": []
            },
            {
                "name": "Dolphin Emulator",
                "icon": "dolphin-emu",
                "description": "GameCube / Wii / Triforce Emulator",
                "pkg": "org.DolphinEmu.dolphin-emu",
                "extra": []
            },
            {
                "name": "PPSSPP",
                "icon": "ppsspp",
                "description": "A PlayStation Portable emulator",
                "pkg": "org.ppsspp.PPSSPP",
                "extra": []
            },
            {
                "name": "DOSBox",
                "icon": "dosbox",
                "description": "x86/DOS emulator with sound and graphics",
                "pkg": "com.dosbox.DOSBox",
                "extra": []
            },
            {
                "name": "EDuke32",
                "icon": "eduke32",
                "description": "EDuke32 is an awesome, free homebrew game engine",
                "pkg": "com.eduke32.EDuke32",
                "extra": []
            },
            {
                "name": "Citra",
                "icon": "citra",
                "description": "Nintendo 3DS emulator",
                "pkg": "org.citra_emu.citra",
                "extra": []
            },
            {
                "name": "yuzu",
                "icon": "yuzu",
                "description": "Nintendo Switch emulator",
                "pkg": "org.yuzu_emu.yuzu",
                "extra": []
            },
            {
                "name": "RPCS3",
                "icon": "rpcs3",
                "description": "Open-source Sony PlayStation 3 Emulator",
                "pkg": "net.rpcs3.RPCS3",
                "extra": []
            }
        ]
    },
    {
        "name": "Graphics Tools",
        "icon": "applications-graphics",
        "description": "Creating and editing graphics",
        "apps": [
            {
                "name": "Blender",
                "icon": "blender",
                "description": "3D modeling and animation",
                "pkg": "org.blender.Blender",
                "extra": []
            },
            {
                "name": "darktable",
                "icon": "darktable",
                "description": "Organize and develop images from digital cameras",
                "pkg": "org.darktable.Darktable",
                "extra": []
            },
            {
                "name": "digiKam",
                "icon": "digikam",
                "description": "Photo Management Program",
                "pkg": "org.kde.digikam",
                "extra": []
            },
            {
                "name": "GIMP",
                "icon": "gimp",
                "description": "Create images and edit photographs",
                "pkg": "org.gimp.GIMP",
                "extra": []
            },
            {
                "name": "Krita",
                "icon": "krita",
                "description": "Digital Painting Creative Freedom",
                "pkg": "org.kde.krita",
                "extra": []
            }
        ]
    },
    {
        "name": "Internet Tools",
        "icon": "browser",
        "description": "Web browsing and communication",
        "apps": [
            {
                "name": "Brave",
                "icon": "brave",
                "description": "A web browser that stops ads and trackers by default.",
                "pkg": "com.brave.Browser",
                "extra": []
            },
            {
                "name": "Chromium",
                "icon": "chromium",
                "description": "Fast and popular open source browser",
                "pkg": "org.chromium.Chromium",
                "extra": []
            },
            {
                "name": "Ungoogled Chromium",
                "icon": "chromium",
                "description": "A lightweight approach to removing Google web service dependency",
                "pkg": "com.github.Eloston.UngoogledChromium",
                "extra": []
            },
            {
                "name": "LibreWolf",
                "icon": "librewolf",
                "description": "LibreWolf Web Browser",
                "pkg": "io.gitlab.librewolf-community",
                "extra": []
            },
            {
                "name": "Evolution",
                "icon": "evolution",
                "description": "Manage your email, contacts and schedule",
                "pkg": "org.gnome.Evolution",
                "extra": []
            },
            {
                "name": "Geary",
                "icon": "geary",
                "description": "Send and receive mail",
                "pkg": "org.gnome.Geary",
                "extra": []
            },
            {
                "name": "Mailspring",
                "icon": "mailspring",
                "description": "The best email app for people and teams at work",
                "pkg": "com.getmailspring.Mailspring",
                "extra": []
            },
            {
                "name": "Thunderbird",
                "icon": "thunderbird",
                "description": "Send and receive mail, contacts and schedule",
                "pkg": "org.mozilla.Thunderbird",
                "extra": []
            },
            {
                "name": "Discord",
                "icon": "discord",
                "description": "Messaging, Voice, and Video Client",
                "pkg": "com.discordapp.Discord",
                "extra": []
            },
            {
                "name": "Element",
                "icon": "element-desktop",
                "description": "Glossy Matrix collaboration client - desktop version",
                "pkg": "im.riot.Riot",
                "extra": []
            },
            {
                "name": "Ferdium",
                "icon": "ferdium",
                "description": "Messenger for the desktop",
                "pkg": "org.ferdium.Ferdium",
                "extra": []
            },
            {
                "name": "Fractal",
                "icon": "Fractal",
                "description": "Matrix group messaging app",
                "pkg": "org.gnome.Fractal",
                "extra": []
            },
            {
                "name": "Jitsi",
                "icon": "jitsi",
                "description": "Secure, Simple and Scalable Video Conferences",
                "pkg": "org.jitsi.jitsi-meet",
                "extra": []
            },
            {
                "name": "Mumble",
                "icon": "mumble",
                "description": "Low latency encrypted VoIP client",
                "pkg": "info.mumble.Mumble",
                "extra": []
            },
            {
                "name": "Signal Desktop",
                "icon": "signal-desktop",
                "description": "Private messenger",
                "pkg": "org.signal.Signal",
                "extra": []
            },
            {
                "name": "Teams For Linux",
                "icon": "teams-for-linux",
                "description": "Unofficial Teams client for Linux",
                "pkg": "com.github.IsmaelMartinez.teams_for_linux",
                "extra": []
            },
            {
                "name": "Telegram",
                "icon": "telegram-desktop",
                "description": "Official Telegram Desktop client",
                "pkg": "org.telegram.desktop",
                "extra": []
            },
            {
                "name": "Cawbird",
                "icon": "cawbird",
                "description": "Twitter Client",
                "pkg": "uk.co.ibboard.cawbird",
                "extra": []
            },
            {
                "name": "Zoom",
                "icon": "zoom-desktop",
                "description": "Video Conferencing, Web Conferencing, Webinars, Screen Sharing",
                "pkg": "us.zoom.Zoom",
                "extra": []
            },
            {
                "name": "Dropbox",
                "icon": "dropbox",
                "description": "Access your files from any computer",
                "pkg": "com.dropbox.Client",
                "extra": []
            },
            {
                "name": "Filezilla",
                "icon": "filezilla",
                "description": "Graphical FTP/FTPS/SFTP browser",
                "pkg": "org.filezillaproject.Filezilla",
                "extra": []
            },
            {
                "name": "JDownloader",
                "icon": "jdownloader",
                "description": "Download management tool",
                "pkg": "org.jdownloader.JDownloader",
                "extra": []
            },
            {
                "name": "MEGAsync",
                "icon": "megasynching",
                "description": "Easy automated syncing between your computers and your MEGA Cloud Drive.",
                "pkg": "nz.mega.MEGAsync",
                "extra": []
            },
            {
                "name": "qBittorrent",
                "icon": "qbittorrent",
                "description": "An open-source Bittorrent client",
                "pkg": "org.qbittorrent.qBittorrent",
                "extra": []
            },
            {
                "name": "Slack",
                "icon": "slack",
                "description": "Chat with your team",
                "pkg": "com.slack.Slack",
                "extra": []
            },
            {
                "name": "Motrix",
                "icon": "motrix",
                "description": "A full-featured download manager",
                "pkg": "net.agalwood.Motrix",
                "extra": []
            },
            {
                "name": "FreeTube",
                "icon": "freetube",
                "description": "An Open Source YouTube app for privacy",
                "pkg": "io.freetubeapp.FreeTube",
                "extra": []
            },
            {
                "name": "Caprine",
                "icon": "caprine",
                "description": "Elegant Facebook Messenger desktop app",
                "pkg": "com.sindresorhus.Caprine",
                "extra": []
            },
            {
                "name": "Mattermost",
                "icon": "mattermost",
                "description": "An open source platform for developer collaboration.",
                "pkg": "com.mattermost.Desktop",
                "extra": []
            },
            {
                "name": "WhatsApp Desktop",
                "icon": "whatsapp-desktop",
                "description": "Unofficial WhatsApp Web Desktop client.",
                "pkg": "io.github.mimbrero.WhatsAppDesktop",
                "extra": []
            },
            {
                "name": "VGrive",
                "icon": "vgrive",
                "description": "Google Drive client",
                "pkg": "com.github.bcedu.vgrive",
                "extra": []
            },
            {
                "name": "Microsoft Edge",
                "icon": "microsoft-edge",
                "description": "Browser",
                "pkg": "com.microsoft.Edge",
                "extra": []
            },
            {
                "name": "Tor Browser Launcher",
                "icon": "tor-browser",
                "description": "The Tor Browser Bundle",
                "pkg": "com.github.micahflee.torbrowser-launcher",
                "extra": []
            }
        ]
    },
    {
        "name": "Office Suites",
        "icon": "applications-office",
        "description": "Office suites like MS Office",
        "apps": [
            {
                "name": "OnlyOffice Desktop Editors",
                "icon": "ms-word",
                "description": "Light and free MS Office clone.",
                "pkg": "org.onlyoffice.desktopeditors",
                "extra": []
            },
            {
                "name": "WPS Office",
                "icon": "ms-word",
                "description": "An office productivity suite.",
                "pkg": "com.wps.Office",
                "extra": []
            },
            {
                "name": "Simplenote",
                "icon": "simplenote",
                "description": "The simplest way to keep notes",
                "pkg": "com.simplenote.Simplenote",
                "extra": []
            }
        ]
    },
    {
        "name": "Password Manager",
        "icon": "security-high",
        "description": "Password Managers",
        "apps": [
            {
                "name": "Bitwarden",
                "icon": "bitwarden",
                "description": "Secure and free cloud based password manager.",
                "pkg": "com.bitwarden.desktop",
                "extra": []
            },
            {
                "name": "KeePassXC",
                "icon": "keepassxc",
                "description": "Cross Platform Password Manager",
                "pkg": "org.keepassxc.KeePassXC",
                "extra": []
            },
            {
                "name": "NordPass",
                "icon": "nordpass",
                "description": "An easy to use password manager brought to you by cybersecurity experts.",
                "pkg": "com.nordpass.NordPass",
                "extra": []
            }
        ]
    },
    {
        "name": "Remote Desktop",
        "icon": "remote-desktop",
        "description": "Remote Desktop Tools",
        "apps": [
            {
                "name": "Parsec",
                "icon": "parsec",
                "description": "Simple, low-latency game streaming",
                "pkg": "com.parsecgaming.parsec",
                "extra": []
            },
            {
                "name": "Remmina",
                "icon": "remmina",
                "description": "Remote Desktop Client",
                "pkg": "org.remmina.Remmina",
                "extra": []
            }
        ]
    },
    {
        "name": "System",
        "icon": "applications-system",
        "description": "System utilities",
        "apps": [
            {
                "name": "Firmware",
                "icon": "application-x-firmware",
                "description": "Install firmware on devices",
                "pkg": "org.gnome.Firmware",
                "extra": []
            },
            {
                "name": "OpenRGB",
                "icon": "openrgb",
                "description": "Open source RGB lighting control",
                "pkg": "org.openrgb.OpenRGB",
                "extra": []
            },
            {
                "name": "HydraPaper",
                "icon": "gnome-computer",
                "description": "Wallpaper manager with multi monitor support",
                "pkg": "org.gabmus.hydrapaper",
                "extra": []
            },
            {
                "name": "Flatseal",
                "icon": "flatseal",
                "description": "Manage Flatpak permissions",
                "pkg": "com.github.tchx84.Flatseal",
                "extra": []
            },
            {
                "name": "Warpinator",
                "icon": "warpinator",
                "description": "Send and Receive Files across the Network",
                "pkg": "org.x.Warpinator",
                "extra": []
            }
        ]
    },
    {
        "name": "Video/Movie",
        "icon": "video-player",
        "description": "Organize and play videos and movies",
        "apps": [
            {
                "name": "Plex",
                "icon": "plex",
                "description": "Plex client for desktop computers",
                "pkg": "tv.plex.PlexDesktop",
                "extra": []
            },
            {
                "name": "Plex HTPC",
                "icon": "plex-htpc",
                "description": "Plex HTPC client for the big screen",
                "pkg": "tv.plex.PlexHTPC",
                "extra": []
            },
            {
                "name": "Kodi",
                "icon": "kodi",
                "description": "Manage and view your media",
                "pkg": "tv.kodi.Kodi",
                "extra": []
            },
            {
                "name": "mpv",
                "icon": "mpv",
                "description": "A free, open source, and cross-platform media player",
                "pkg": "io.mpv.Mpv",
                "extra": []
            },
            {
                "name": "Stremio",
                "icon": "stremio",
                "description": "Watch videos, movies, TV series and TV channels instantly.",
                "pkg": "com.stremio.Stremio",
                "extra": []
            },
            {
                "name": "VLC",
                "icon": "vlc",
                "description": "VLC media player, the openxource multimedia player",
                "pkg": "org.videolan.VLC",
                "extra": []
            },
            {
                "name": "OBS Studio",
                "icon": "obs",
                "description": "Live streaming and video recording software",
                "pkg": "com.obsproject.Studio",
                "extra": []
            },
            {
                "name": "OpenShot Video Editor",
                "icon": "openshot",
                "description": "An easy to use, quick to learn, and surprisingly powerful video editor",
                "pkg": "org.openshot.OpenShot",
                "extra": []
            },
            {
                "name": "Pitivi",
                "icon": "pitivi",
                "description": "Create and edit your own movies",
                "pkg": "org.pitivi.Pitivi",
                "extra": []
            },
            {
                "name": "Shotcut",
                "icon": "shotcut",
                "description": "Video editor",
                "pkg": "org.shotcut.Shotcut",
                "extra": []
            },
            {
                "name": "HandBrake",
                "icon": "handbrake",
                "description": "Video Transcoder",
                "pkg": "fr.handbrake.ghb",
                "extra": []
            },
            {
                "name": "MakeMKV",
                "icon": "makemkv",
                "description": "DVD and Blu-ray to MKV converter and network streamer",
                "pkg": "com.makemkv.MakeMKV",
                "extra": []
            },
            {
                "name": "MKVToolNix",
                "icon": "mkvtoolnix-gui",
                "description": "Matroska files creator and tools",
                "pkg": "org.bunkus.mkvtoolnix-gui",
                "extra": []
            },
            {
                "name": "FileBot",
                "icon": "filebot",
                "description": "The ultimate TV and Movie Renamer",
                "pkg": "net.filebot.FileBot",
                "extra": []
            },
            {
                "name": "MediaInfo",
                "icon": "mediainfo",
                "description": "Convenient unified display of technical/tag data for video and audio files",
                "pkg": "net.mediaarea.MediaInfo",
                "extra": []
            },
            {
                "name": "youtubedl-gui",
                "icon": "youtubedl-gui",
                "description": "A simple-to-use, cross-platform graphical interface for youtube-dl.",
                "pkg": "io.github.JaGoLi.ytdl_gui",
                "extra": []
            },
            {
                "name": "MoonPlayer",
                "icon": "MoonPlayer",
                "description": "Video player for playing/downloading online videos from YouTube, Youku etc.",
                "pkg": "com.github.coslyk.MoonPlayer",
                "extra": []
            },
            {
                "name": "Avidemux",
                "icon": "avidemux",
                "description": "Multi-purpose video editing and processing software",
                "pkg": "org.avidemux.Avidemux",
                "extra": []
            }
        ]
    }
]
